Probe,CaCO3
MB033,0.17
MB043,2.28
MB096,0.11
MB100,0.15
MB108,0.33
MB122,0.48
MB129,3.47
MB130,0.11
MB131,1.33
MB133,1.21
MB135,1.55
MB158,0.49
MB159,1.13
MB161,0.56
MB163,2.01
MB164,0.63
MB165,0.37
MB167,0.64
MB169,0.26
MB187,0.47
MB193,0.11
MB196,1.02
MB206,1.25
MB208,0.21
MB211,0.04
MB212,0.18
MB225,0.03
MB231,0.04
MB243,0.18
MB249,0.17
MB260,0.04
MB269,0.16
MB277,0.04
MB280,2.29
MB281,0.01
MB282,3.99
MB291,0.16
MB294,0.68
MB302,0.98
