SID,Einwaage in mg,N_tot,C_tot,,,,,
M01,23.186,0.103,0.942,,,,,
M01,23.185,0.094,0.861,,,,,
M01,23.631,0.073,0.911,,,,,
M02,22.761,0.097,1.286,,,,,
M02,23.630,0.102,1.323,,,,,
M02,23.299,0.090,1.365,,,,,
M03,21.834,0.076,0.696,,,,,
M03,21.842,0.080,0.704,,,,,
M03,24.071,0.082,0.746,,,,,
M04,23.677,0.129,1.232,,,,,
M04,21.581,0.126,1.189,,,,,
M04,21.918,0.132,1.250,,,,,
M05,21.726,0.071,0.668,,,,,
M05,24.594,0.069,0.743,,,,,
M05,21.933,0.068,0.653,,,,,
M06,22.153,0.107,0.996,,,,,
M06,23.762,0.108,1.018,,,,,
M06,21.681,0.119,1.140,,,,,
M07,23.996,0.130,1.406,,,,,
M07,22.875,0.122,1.264,,,,,
M07,22.696,0.134,1.427,,,,,
M08,21.214,0.098,1.014,,,,,
M08,23.645,0.100,0.999,,,,,
M08,23.321,0.111,1.160,,,,,
M09,22.761,0.132,1.284,,,,,
M09,22.090,0.124,1.191,,,,,
M09,21.866,0.125,1.215,,,,,
M10,22.488,0.144,1.407,,,,,
M10,22.357,0.138,1.382,,,,,
M10,23.579,0.139,1.439,,,,,
M11,23.724,0.113,1.068,,,,,
M11,22.483,0.119,1.159,,,,,
M11,24.173,0.122,1.183,,,,,
M12,23.366,0.208,2.261,,,,,
M12,23.465,0.211,2.262,,,,,
M12,24.248,0.219,2.375,,,,,
M13,23.858,0.077,0.742,,,,,
M13,21.062,0.088,0.842,,,,,
M13,23.751,0.079,0.774,,,,,
M14,22.346,0.096,0.920,,,,,
M14,23.215,0.098,0.943,,,,,
M14,21.880,0.096,0.912,,,,,
M15,23.717,0.105,1.042,,,,,
M15,21.966,0.111,1.081,,,,,
M15,23.287,0.107,1.038,,,,,
M16,21.912,0.119,1.161,,,,,
M16,22.080,0.122,1.173,,,,,
M16,22.015,0.120,1.144,,,,,
M17,21.671,0.082,0.811,,,,,
M17,23.332,0.083,0.796,,,,,
M17,23.472,0.080,0.778,,,,,
M18,21.612,0.157,1.561,,,,,
M18,23.472,0.160,1.582,,,,,
M18,21.837,0.130,1.306,,,,,
M19,21.663,0.121,1.331,,,,,
M19,23.213,0.127,1.486,,,,,
M19,22.247,0.128,1.413,,,,,
M20,24.190,0.109,1.127,,,,,
M20,22.726,0.119,1.223,,,,,
M20,23.999,0.112,1.114,,,,,
M21,23.342,0.121,1.282,,,,,
M21,23.124,0.123,1.261,,,,,
M21,21.620,0.129,1.322,,,,,
M22,23.646,0.132,1.353,,,,,
M22,22.392,0.130,1.361,,,,,
M22,22.928,0.133,1.397,,,,,
M23,21.996,0.113,1.124,,,,,
M23,22.861,0.129,1.299,,,,,
M23,21.748,0.118,1.228,,,,,
M24,22.350,0.116,1.212,,,,,
M24,22.880,0.116,1.251,,,,,
M24,21.369,0.109,1.198,,,,,
M25,22.875,0.098,0.998,,,,,
M25,23.435,0.104,1.031,,,,,
M25,22.399,0.108,1.098,,,,,
M26,22.866,0.129,1.378,,,,,
M26,22.431,0.135,1.443,,,,,
M26,23.257,0.133,1.395,,,,,
M27,22.087,0.127,1.403,,,,,
M27,22.017,0.135,1.484,,,,,
M27,23.620,0.129,1.364,,,,,
M28,23.100,0.122,1.201,,,,,
M28,23.682,0.130,1.325,,,,,
M28,23.431,0.128,1.261,,,,,
M29,21.868,0.107,1.063,,,,,
M29,22.831,0.108,1.133,,,,,
M29,23.397,0.101,1.001,,,,,
M30,21.678,0.134,1.353,,,,,
M30,23.573,0.138,1.367,,,,,
M30,23.841,0.136,1.352,,,,,
M31,21.288,0.144,1.438,,,,,
M31,21.526,0.133,1.333,,,,,
M31,23.785,0.150,1.482,,,,,
M32,22.212,0.112,1.130,,,,,
M32,23.615,0.113,1.135,,,,,
M32,23.364,0.113,1.086,,,,,
M33,23.310,0.131,1.252,,,,,
M33,23.275,0.127,1.292,,,,,
M33,23.041,0.140,1.361,,,,,
M34,23.591,0.150,1.557,,,,,
M34,23.047,0.145,1.508,,,,,
M34,22.034,0.142,1.522,,,,,
M35,23.651,0.114,1.553,,,,,
M35,22.862,0.107,1.397,,,,,
M35,22.353,0.112,1.332,,,,,
M36,24.905,0.097,1.276,,,,,
M36,24.104,0.091,1.186,,,,,
M36,22.336,0.085,1.251,,,,,
M37,24.073,0.101,1.404,,,,,
M37,23.401,0.100,1.446,,,,,
M37,24.290,0.098,1.360,,,,,
M38,20.041,0.111,1.453,,,,,
M38,22.012,0.102,1.521,,,,,
M38,22.703,0.091,1.332,,,,,
M39,23.972,0.097,1.485,,,,,
M39,24.305,0.102,1.519,,,,,
M39,22.665,0.113,1.590,,,,,
M40,22.755,0.103,1.453,,,,,
M40,22.727,0.096,1.292,,,,,
M40,22.192,0.086,1.225,,,,,
M41,24.371,0.073,0.987,,,,,
M41,20.221,0.067,0.902,,,,,
M41,22.556,0.066,0.935,,,,,
M42,21.107,0.054,0.860,,,,,
M42,24.470,0.057,0.779,,,,,
M42,20.564,0.047,0.695,,,,,
M43,21.397,0.214,3.232,,,,,
M43,22.542,0.208,3.240,,,,,
M43,20.394,0.229,3.393,,,,,
M44,22.763,0.085,0.981,,,,,
M44,21.212,0.078,0.965,,,,,
M44,24.185,0.064,0.945,,,,,
M45,21.136,0.086,1.177,,,,,
M45,21.353,0.090,1.226,,,,,
M45,23.749,0.084,1.112,,,,,
