SID,RockFrag
MB005,0.940
MB006,2.218
MB007,2.641
MB008,2.116
MB017,2.248
MB018,1.452
MB019,2.419
MB020,3.896
MB025,1.511
MB026,1.291
MB027,3.383
MB028,1.127
MB029,7.540
MB030,4.070
MB031,1.487
MB032,3.940
MB037,4.278
MB038,3.862
MB039,4.978
MB040,6.565
MB045,2.504
MB046,2.382
MB048,0.592
MB057,7.009
MB058,1.993
MB059,2.632
MB060,4.402
MB065,1.446
MB066,1.699
MB067,0.513
MB068,0.678
MB069,6.740
MB070,4.423
MB071,5.643
MB072,2.449
MB077,9.249
MB078,5.628
MB079,7.329
MB080,4.396
MB085,3.606
MB086,5.845
MB088,2.565
MB101,4.688
MB103,2.364
MB104,5.701
MB109,5.966
MB110,0.968
MB111,1.351
MB112,0.469
MB113,4.189
MB114,2.299
MB115,3.897
MB116,7.276
MB117,7.058
MB118,1.342
MB119,7.421
MB120,4.474
MB149,1.529
MB150,3.921
MB151,4.420
MB170,5.450
MB171,1.839
MB172,2.281
MB177,4.819
MB178,1.051
MB179,1.992
MB180,3.610
MB181,2.561
MB182,6.828
MB183,4.027
MB184,6.966
MB185,0.321
MB186,5.681
MB190,0.544
MB191,0.383
MB213,1.231
MB214,1.251
MB215,1.005
MB220,1.771
MB221,3.676
MB222,2.231
MB223,1.385
MB237,4.774
MB238,2.346
MB236,0.947
MB239,6.309
MB244,0.817
MB245,2.149
MB246,4.337
MB247,7.017
MB253,4.244
MB256,1.034
MB257,2.719
MB258,0.867
MB259,0.894
MB272,1.081
MB273,1.229
MB274,1.256
MB275,5.933
MB279,8.210
,
,
,
,
,
,
,
,
,
,
,
,
,
,
,
,
,
,
,
,
,
,
,
,
,
,
,
,
,
,
,
,
,
,
,
,
,
,
,
,
,
,
,
,
,
,
,
,
,
,
,
,
,
,
,
,
,
,
,
,
,
,
,
,
,
,
,
,
,
,
,
,
,
,
,
,
,
,
,
,
,
,
,
,
,
,
,
,
,
,
,
,
,
,
,
,
,
,
,
,
,
,
,
,
,
,
,
,
,
,
,
,
,
,
,
,
,
,
,
,
,
,
,
,
,
,
,
,
,
,
,
,
,
,
,
,
,
,
,
,
,
,
,
,
,
,
,
,
,
,
,
,
,
,
,
,
,
,
,
,
,
,
,
,
,
,
,
,
,
,
,
,
,
,
,
,
,
,
,
,
,
,
,
,
,
,
,
,
,
,
,
,
,
,
,
,
,
,
,
,
,
,
,
,
,
,
,
,
,
,
,
,
,
,
,
,
,
,
,
,
,
,
,
,
,
,
,
,
,
,
,
,
,
,
,
,
,
,
,
,
,
,
,
,
,
,
,
,
,
,
,
,
,
,
,
,
,
,
,
,
,
,
,
,
,
,
,
,
,
,
,
,
,
,
,
,
,
,
,
,
,
,
,
,
,
,
,
,
,
,
,
,
,
,
,
,
,
,
,
,
,
,
,
,
,
,
,
,
,
,
,
,
,
,
,
,
,
,
,
,
,
,
,
,
,
,
,
,
,
,
,
,
,
,
,
,
,
,
,
,
,
,
,
,
,
,
,
,
,
,
,
,
,
,
,
,
,
,
,
,
,
,
,
,
,
,
,
,
,
,
,
,
,
,
,
,
,
,
,
,
,
,
,
,
,
,
,
,
,
,
,
,
,
,
,
,
,
,
,
,
,
,
,
,
,
,
,
,
,
,
,
,
,
,
,
,
,
,
,
,
,
,
,
,
,
,
,
,
,
,
,
,
,
,
,
,
,
,
,
,
,
,
,
,
,
,
,
,
,
,
,
,
,
,
,
,
,
,
,
,
,
,
,
,
,
,
,
,
,
,
,
,
,
,
,
,
,
,
,
,
,
,
,
,
,
,
,
,
,
,
,
,
,
,
,
,
,
,
,
,
,
,
,
,
,
,
,
,
,
,
,
,
,
,
,
,
,
,
,
,
,
,
,
,
,
,
,
,
,
,
,
,
,
,
,
,
,
,
,
,
,
,
,
,
,
,
,
,
,
,
,
,
,
,
,
,
,
,
,
,
,
,
,
,
,
,
,
,
,
,
,
,
,
,
,
,
,
,
,
,
,
,
,
,
,
,
,
,
,
,
,
,
,
,
,
,
,
,
,
,
,
,
,
,
,
,
,
,
,
,
,
,
,
,
,
,
,
,
,
,
,
,
,
,
,
,
,
,
,
,
,
,
,
,
,
,
,
,
,
,
,
,
,
,
,
,
,
,
,
,
,
,
,
,
,
,
,
,
,
,
,
,
,
,
,
,
,
,
,
,
,
,
,
,
,
,
,
,
,
,
,
,
,
,
,
,
,
,
,
,
,
,
,
,
,
,
,
,
,
,
,
,
,
,
,
,
,
,
,
,
,
,
,
,
,
,
,
,
,
,
,
,
,
,
,
,
,
,
,
,
,
,
,
,
,
,
,
,
,
,
,
,
,
,
,
,
,
,
,
,
,
,
,
,
,
,
,
,
,
,
,
,
,
,
,
,
,
,
,
,
,
,
,
,
,
,
,
,
,
,
,
,
,
,
,
,
,
,
,
,
,
,
,
,
,
,
,
,
,
,
,
,
,
,
,
,
,
,
,
,
,
,
,
,
,
,
,
,
,
,
,
,
,
,
,
,
,
,
,
,
,
,
,
,
,
,
,
,
,
,
,
,
,
,
,
,
,
,
,
,
,
,
,
,
,
,
,
,
,
,
,
,
,
,
,
,
,
,
,
,
,
,
,
,
,
,
,
,
,
,
,
,
,
,
,
,
,
,
,
,
,
,
,
,
,
,
