Proben-Nr.,re,ho,height,Abnahme,gU(%),mU(%),fU(%),T(%),fS (g),mS (g),gS (g),gesamt Sand (%),Wiederfindungsrate,Bemerkung
M01,585791.043,5999983.249,45.642,1,13.17,8.81,7.43,21.25,0.45,1.55,2.69,39.08,89.74,
M01,585791.043,5999983.249,45.642,1,16.32,11.55,6.95,20.52,0.53,1.56,2.69,39.83,95.18,
M02,585804.301,6000009.573,42.08,1,13.09,10.66,5.25,16.80,0.59,1.96,2.90,45.42,91.23,
M02,585804.301,6000009.573,42.08,1,13.33,10.66,6.71,16.56,0.52,1.93,2.89,44.50,91.76,
M03,585662.851,5999864.027,45.977,1,12.36,11.15,8.16,17.53,0.53,1.81,2.97,44.25,93.45,
M03,585662.851,5999864.027,45.977,1,11.96,11.55,6.38,18.58,0.52,1.88,1.80,35.00,83.48,
M04,585683.761,5999907.085,46.746,1,17.29,7.27,7.59,17.94,0.58,1.49,2.66,39.42,89.51,
M04,585683.761,5999907.085,46.746,1,16.16,11.96,7.19,18.74,0.53,1.54,2.70,39.75,93.80,
M04,585683.761,5999907.085,46.746,2,15.59,12.93,7.11,19.23,0.56,1.52,2.68,39.42,94.27,
M05,585892.638,5999951.538,41.127,1,15.67,10.50,5.66,17.69,0.60,1.87,3.05,46.00,95.53,
M05,585892.638,5999951.538,41.127,1,14.38,11.47,6.46,17.29,0.55,1.83,3.04,45.17,94.77,
M06,585674.076,5999902.943,45.877,1,14.14,12.12,7.35,18.74,0.50,1.66,2.78,41.17,93.52,
M07,585849.396,5999931.274,42.328,1,15.75,10.34,5.98,14.62,0.53,1.96,3.16,47.08,93.78,
M08,585822.098,6000050.029,38.99,1,13.57,8.08,4.69,11.31,0.54,2.53,3.21,52.33,89.98,
M08,585822.098,6000050.029,38.99,1,15.27,9.86,4.52,11.39,0.57,2.54,3.19,52.50,93.54,
M09,585630.445,5999908.729,40.775,1,16.40,10.58,6.54,13.90,0.63,1.83,2.97,45.25,92.67,
M10,585696.554,5999981.529,40.468,1,14.78,10.99,5.82,16.89,0.54,1.83,2.99,44.67,93.14,
M11,585776.355,5999936.05,48.164,1,14.95,11.23,6.62,16.40,0.43,1.71,3.10,43.67,92.87,
M12,585724.735,6000021.351,37.686,1,16.24,11.71,7.19,16.80,0.31,1.52,2.74,38.08,90.03,
M13,585734.074,5999972.893,44.741,1,11.47,8.89,5.25,15.27,0.64,2.75,2.89,52.33,93.21,
M13,585734.074,5999972.893,44.741,1,12.71,8.58,5.58,15.54,0.65,2.89,2.81,53.01,95.41,
M14,585703.287,5999960.357,44.225,1,11.47,11.23,6.38,19.79,0.53,1.76,2.91,43.58,92.46,
M15,585826.865,5999968.507,42.891,1,13.64,9.36,5.57,16.63,0.60,2.06,3.19,48.71,93.92,
M16,585690.072,5999947.642,44.697,1,11.38,11.14,6.86,19.62,0.42,1.77,2.90,42.38,91.38,
M17,585648.306,"5,999,804,185",44.719,1,12.04,10.26,7.03,20.44,0.40,1.77,3.05,43.50,93.27,
M18,585714.836,5999920.819,48.117,2,18.34,13.49,8.32,17.77,0.36,1.52,2.81,39.08,97.01,
M18,585714.836,5999920.819,48.117,1,16.79,13.16,7.83,16.47,0.36,1.52,2.81,39.05,93.30,
M19,585628.24,5999959.786,40.835,1,15.11,7.03,3.39,10.18,0.93,3.24,2.85,58.50,94.21,
M19,585628.24,5999959.786,40.835,2,15.67,7.59,3.55,11.15,0.93,3.24,2.85,58.50,96.47,
M20,585833.12,5999974.705,41.272,1,14.46,9.29,5.57,15.03,0.46,2.07,3.36,49.08,93.44,
M21,585748.231,6000010.542,39.516,1,13.49,9.45,5.98,15.84,0.58,2.31,3.14,50.25,95.01,
M22,585842.722,5999952.034,41.479,1,14.38,10.58,5.98,15.19,0.53,1.99,3.13,47.08,93.22,
M23,585766.377,6000010.3,40.645,1,12.85,10.50,6.95,18.58,0.47,1.94,2.97,44.83,93.71,
M24,585786.254,6000052.888,38.447,1,16.48,10.50,6.06,15.27,0.45,1.88,2.86,43.25,91.56,
M25,585840.227,5999934.026,43.509,1,13.98,9.86,7.11,18.34,0.33,1.81,3.15,44.08,93.37,
M26,585856.867,5999998.411,37.561,1,15.27,10.58,4.28,13.25,0.47,2.07,3.39,49.42,92.80,
M27,585884.146,6000008.351,37.412,1,14.06,8.73,5.33,12.28,0.33,2.03,3.93,52.42,92.81,
M28,585766.403,5999956.697,47.603,1,16.48,11.31,6.38,16.56,0.41,1.55,3.20,43.00,93.74,
M29,585766.348,6000001.44,42.544,1,14.21,10.49,5.89,18.65,0.53,2.01,2.96,45.83,95.08,
M30,585746.594,5999900.279,49.746,1,13.49,10.34,6.79,16.97,0.53,1.73,3.09,44.58,92.17,
M30,585746.594,5999900.279,49.746,1,14.38,9.69,6.87,17.05,0.50,1.79,3.01,44.17,92.16,
M31,585772.166,5999904.957,48.713,1,17.69,12.28,7.59,15.03,0.31,1.47,3.09,40.58,93.18,
M32,585740.229,5999891.452,49.968,1,13.90,10.75,5.82,19.63,0.51,1.70,2.95,43.00,93.09,
M33,585684.556,5999874.126,47.961,1,16.32,13.17,7.59,20.04,0.44,1.47,2.39,35.83,92.95,
M34,585598.619,5999850.81,40.341,1,12.92,9.12,5.57,6.05,0.62,2.28,3.45,52.92,86.58,
M34,585598.619,5999850.81,40.341,2,11.63,9.29,6.14,5.82,0.62,2.28,3.45,52.92,85.80,Positiver Kalknachweis
M35,585664.17,5999964.926,41.143,1,16.40,11.96,7.68,15.27,0.48,1.74,2.87,42.42,93.72,
M36,585874.686,5999947.074,40.882,1,14.87,9.61,6.46,6.95,0.53,2.14,3.29,49.67,87.56,
M36,585874.686,5999947.074,40.882,2,15.67,10.42,6.62,6.54,0.53,2.14,3.29,49.67,88.93,
M37,585757.54,6000027.84,38.32,1,15.35,8.97,5.90,14.30,0.49,2.22,3.09,48.33,92.85,
M38,585633.639,5999784.137,42.432,1,15.51,10.83,6.71,16.00,0.50,1.81,2.86,43.08,92.12,
M39,585709.735,6000032.144,38.339,1,17.85,10.66,6.95,15.19,0.28,1.55,3.25,42.33,92.99,
M40,585717.629,5999993.713,39.586,1,11.71,10.49,6.30,16.87,0.43,2.17,2.95,46.25,91.62,
M41,585748.112,5999992.623,42.77,1,14.22,10.02,5.66,16.56,0.66,2.00,3.11,48.08,94.54,
M42,585767.039,5999988.197,45.176,1,12.52,9.86,6.46,18.18,0.53,2.01,3.09,46.92,93.94,
M43,585728.987,6000032.576,37.675,1,16.24,12.85,7.51,19.63,0.21,1.21,2.58,33.33,89.56,
M44,585678.594,5999795.272,47.723,1,13.73,11.39,6.62,19.79,0.38,1.59,2.99,41.33,92.88,
M45,585623.609,5999884.164,40.836,1,16.64,10.58,5.82,13.41,0.45,2.02,3.14,46.75,93.21,
M45,585623.609,5999884.164,40.836,1,17.28,10.49,5.73,13.64,0.50,1.81,3.09,45.00,92.14,
